<?xml version="1.0" encoding="UTF-8"?>
<!DOCTYPE svg PUBLIC "-//W3C//DTD SVG 1.1//EN" "http://www.w3.org/Graphics/SVG/1.1/DTD/svg11.dtd">
<!-- Creator: CorelDRAW -->
<svg xmlns="http://www.w3.org/2000/svg" xml:space="preserve" width="1125px" height="1125px" version="1.1" shape-rendering="geometricPrecision" text-rendering="geometricPrecision" image-rendering="optimizeQuality" fill-rule="evenodd" clip-rule="evenodd"
viewBox="0 0 112500 112500"
 xmlns:xlink="http://www.w3.org/1999/xlink"
 xmlns:xodm="http://www.corel.com/coreldraw/odm/2003">
 <g id="Layer_x0020_1">
  <metadata id="CorelCorpID_0Corel-Layer"/>
  <g id="_105553348936256">
   <path fill="#5C8984" fill-rule="nonzero" d="M112450 56300c0,31066 -25184,56250 -56250,56250 -31066,0 -56250,-25184 -56250,-56250 0,-31066 25184,-56250 56250,-56250 31066,0 56250,25184 56250,56250z"/>
   <g>
    <polygon fill="#A39D8B" fill-rule="nonzero" points="32405,77510 79995,77510 79995,83091 32405,83091 "/>
    <polygon fill="#CAC5B0" fill-rule="nonzero" points="37362,71928 75038,71928 75038,77510 37362,77510 "/>
    <path fill="#CAC5B0" fill-rule="nonzero" d="M77021 61971c0,1384 -278,2735 -783,3963 -506,1228 -1260,2333 -2202,3215l-654 614c-1497,1395 -3371,2165 -5314,2165l-3391 0c1388,0 2726,-770 3797,-2165l466 -614c1349,-1775 2132,-4410 2132,-7178 0,-3483 -1230,-6687 -3183,-8294l-11679 -9612 16349 9612c2747,1607 4462,4811 4462,8294z"/>
    <path fill="#DEDBC4" fill-rule="nonzero" d="M71072 61971c0,2768 -783,5403 -2132,7178l-466 614c-1071,1395 -2409,2165 -3797,2165l-20295 0c-1924,0 -3778,-748 -5265,-2121l-714 -658c-545,-503 -1021,-1072 -1428,-1708 -1031,-1585 -1596,-3505 -1596,-5504 0,-1730 426,-3393 1190,-4822 773,-1429 1884,-2623 3242,-3438l15457 -9143 873 -513 9 11 60 33 11679 9612c1953,1607 3183,4811 3183,8294z"/>
    <path fill="#EDECD5" fill-rule="nonzero" d="M64132 57506c0,2768 -783,5402 -2132,7178l-466 613c-1071,1396 -2409,2166 -3797,2166l-20296 0c-158,0 -317,0 -466,-22 -1031,-1585 -1596,-3505 -1596,-5504 0,-1730 426,-3393 1190,-4822 773,-1429 1884,-2623 3242,-3438l15457 -9143 5681 4678c1953,1607 3183,4811 3183,8294z"/>
    <path fill="#F8DC39" fill-rule="nonzero" d="M61693 38774c-893,2423 -3014,4131 -5493,4131 -3282,0 -5949,-3003 -5949,-6698 0,-3695 2667,-6698 5949,-6698 -1200,1016 -1983,2646 -1983,4465 0,3081 2221,5582 4957,5582 922,0 1785,-279 2519,-782z"/>
    <line fill="none" fill-rule="nonzero" x1="56200" y1="44054" x2="56200" y2= "42905" />
    <path fill="#22344E" fill-rule="nonzero" d="M65123 78626l-991 0c-548,0 -992,-500 -992,-1116 0,-617 444,-1117 992,-1117l991 0c547,0 992,500 992,1117 0,616 -445,1116 -992,1116z"/>
    <path fill="#22344E" fill-rule="nonzero" d="M35379 84207l-2974 0c-548,0 -992,-500 -992,-1116l0 -5581c0,-617 444,-1117 992,-1117l27761 0c547,0 991,500 991,1117 0,616 -444,1116 -991,1116l-26770 0 0 3349 1983 0c547,0 992,500 992,1116 0,616 -445,1116 -992,1116z"/>
    <path fill="#22344E" fill-rule="nonzero" d="M79995 84207l-40650 0c-547,0 -992,-500 -992,-1116 0,-616 445,-1116 992,-1116l39659 0 0 -3349 -9915 0c-547,0 -991,-500 -991,-1116 0,-617 444,-1117 991,-1117l10906 0c547,0 992,500 992,1117l0 5581c0,616 -445,1116 -992,1116z"/>
    <path fill="#22344E" fill-rule="nonzero" d="M65123 78626l-991 0c-548,0 -992,-500 -992,-1116 0,-617 444,-1117 992,-1117l991 0c547,0 992,500 992,1117 0,616 -445,1116 -992,1116z"/>
    <path fill="#22344E" fill-rule="nonzero" d="M75038 78626l-5949 0c-547,0 -991,-500 -991,-1116 0,-617 444,-1117 991,-1117l4957 0 0 -3348 -35693 0 0 3348 21813 0c547,0 991,500 991,1117 0,616 -444,1116 -991,1116l-22804 0c-547,0 -991,-500 -991,-1116l0 -5582c0,-616 444,-1116 991,-1116l37676 0c547,0 991,500 991,1116l0 5582c0,616 -444,1116 -991,1116z"/>
    <path fill="#22344E" fill-rule="nonzero" d="M68068 73045l-23686 0c-2143,0 -4235,-843 -5894,-2374l-714 -659c-2153,-1998 -3386,-4940 -3386,-8075 0,-1901 460,-3767 1331,-5398 879,-1622 2131,-2950 3626,-3847l4824 -2851c484,-286 1083,-74 1339,471 254,546 67,1221 -417,1507l-4819 2847c-1177,704 -2166,1753 -2856,3030 -683,1278 -1045,2746 -1045,4241 0,2465 970,4779 2662,6350l712 657c1305,1205 2951,1868 4637,1868l23686 0c1698,0 3361,-678 4682,-1909l652 -612c823,-770 1491,-1747 1936,-2827 452,-1097 691,-2305 691,-3493 0,-3087 -1505,-5886 -3927,-7304l-15961 -9386 -7561 4472c-483,288 -1084,77 -1338,-469 -255,-546 -69,-1220 416,-1507l8021 -4744c289,-171 632,-171 920,-1l16419 9656c3080,1802 4994,5359 4994,9283 0,1510 -302,3042 -875,4433 -568,1377 -1420,2623 -2467,3603l-653 613c-1679,1564 -3791,2425 -5949,2425z"/>
    <path fill="#22344E" fill-rule="nonzero" d="M56200 44021c-3827,0 -6940,-3505 -6940,-7814 0,-4309 3113,-7814 6940,-7814 427,0 805,307 941,763 135,456 -5,958 -346,1246 -316,267 -595,593 -807,942 -311,509 -926,639 -1378,293 -183,-141 -310,-336 -377,-553 -1758,859 -2991,2832 -2991,5123 0,3077 2224,5581 4958,5581 1102,0 2139,-405 2978,-1116 -2,0 -3,0 -4,0 -3280,0 -5948,-3004 -5948,-6698 0,-118 25,-336 59,-447 170,-586 729,-907 1250,-714 464,171 739,690 673,1215 30,2441 1797,4411 3966,4411 719,0 1412,-214 2003,-619 365,-250 835,-208 1161,107 325,314 434,828 271,1275 -1079,2928 -3594,4819 -6409,4819z"/>
    <path fill="#22344E" fill-rule="nonzero" d="M56200 45171c-547,0 -992,-500 -992,-1117l0 -1149c0,-617 445,-1117 992,-1117 547,0 991,500 991,1117l0 1149c0,617 -444,1117 -991,1117z"/>
   </g>
  </g>
 </g>
</svg>
